{
    "region":"us-east-1",
    "clusterName":"FAB-Service-uat",
    "repositoryName":"fabservice",
    "taskDefinitionFamily":"fab-task-uat",
    "taskDefinitionName":"fab-task-uat",
    "serviceName":"fab_service_uat",
    "loadBalancerName":"fab-external-loadbalancer-uat",
    "tasktemplatejson":"environments/wubsfabfinal.json",
    "containerDesiredCount":"",
    "containerMaximumCount":"",
    "containerMinimumCount":"",
    "minimumHealthyPercent":"0",
    "maximumHealthyPercent":""
 }